25

1
gZn1Csum-01679825
1
1
1
1
1

2
kae3qSAR-22029401
gKuexmkt-32091233
2 1
2 1
1 2

3
u0YP8i9d-39556964
_FBs_YEF-90048451
Fgs144di-16048650
3 1 2
3 2 1
3 2 1
1 3 2
1 2 3

3
LrbDC_g0-62533448
TrYxyN3H-05595621
sofiVUW0-22822371
1 2 3

2
qgMH2t3a-87812106
A_aZz_5B-77116292
1 2
2 1
2 1
1 2
1 2
2 1
1 2
2 1
2 1
1 2

5
c1m4hp0a-40121917
gvjEn8jA-65691528
2ebbdZGV-95358406
2B67p8Dz-02409764
Ff6K3nJe-59175062
5 1 3 4 2
1 4 3 5 2

4
yrR6xLUK-75950531
dECqQnKU-56677082
PLKq14kL-70336113
PTvZISIX-16231911
1 2 4 3
2 4 3 1
1 3 2 4
3 1 2 4
1 4 3 2
4 1 3 2
1 3 2 4
2 1 3 4

3
E2du2M4x-82037166
na6FSUrW-10202059
AnXexj4q-71279094
3 2 1
3 2 1

5
ofNYR4c5-00020634
NRl8mDju-87250132
MbBRHpGI-16648228
fbxsdxS9-15966454
98WqqPjc-47250009
5 4 1 2 3
1 3 4 2 5
3 5 4 1 2
1 4 3 2 5
5 4 1 2 3

3
v1uKvwjg-34254176
s_67G3aM-54680396
LTGL88ze-76894091
2 3 1
1 2 3
2 3 1
1 3 2
2 1 3
2 3 1
3 2 1

4
EyV4X2tf-36143110
fBbNvgSc-86144875
4Col2YaM-84721978
5wqfjUYM-97900147
4 1 3 2
4 3 2 1
4 3 1 2
1 4 3 2
3 1 2 4
1 2 3 4
1 2 3 4

1
3nsu3U8k-65703824
1
1
1

3
_oaVVDCh-34173417
FhKEKTkW-78104874
PGB0igVl-07200596
1 3 2
3 2 1
1 3 2

2
sggKRhTx-79840717
Rf7OuKA3-21541801
1 2
1 2
1 2
2 1
2 1
1 2
1 2

4
uL5SdLzq-15923280
KEUm6iFD-01338833
WxlVxzfo-11369303
aPWEGnzC-05201195
2 1 3 4
2 1 4 3
2 3 4 1
4 2 1 3
3 2 1 4

3
iPrGMIIw-01795854
IRK_ZoM0-82341361
8brXZy4_-16241440
2 3 1
1 2 3
3 1 2
3 2 1
2 1 3
3 1 2
3 2 1
1 3 2
3 2 1

1
8__Cmki0-62567951
1
1
1
1
1
1
1
1
1

3
JT1Tq9w1-96813920
fXtymqmr-95271197
OCzX4ubr-55982716
1 2 3

2
p0GpePOc-11864715
ReHVgG4p-84776989
2 1
1 2
1 2
1 2

2
s6IRBIwD-96843013
8R5HjUSI-41685366
2 1
1 2
1 2
1 2

3
YOzWHjwr-23132275
x9PLZ6Zf-87788027
U_1dzcU0-77648683
3 1 2
3 2 1
2 3 1
1 2 3
1 2 3
2 3 1
2 1 3

3
KktKjqD4-21613064
3KySEA8S-71761993
1I05kE4k-61578632
2 1 3
1 2 3
1 3 2
1 2 3
2 1 3
1 2 3
3 1 2
1 2 3

4
P6YoxsFy-35009460
nQjociiK-66919968
jLU7E3PE-43193448
JuksiZK5-31020822
3 2 1 4
4 2 1 3
1 3 4 2
1 4 2 3
4 3 2 1
1 2 4 3
4 2 3 1
1 3 2 4
1 2 3 4

1
Xib5kedg-26689228
1
1
1
1

2
Fvv7DK9x-75498985
xs2mqT6g-39893677
2 1
2 1
1 2
1 2
2 1
1 2
