20

4
John1
John2
John3
John4
1 4 2 3 
3 2 4 1 
3 4 1 2 
3 4 1 2 
2 1 4 3 
3 4 2 1 
3 4 2 1 

10
John1
John2
John3
John4
John5
John6
John7
John8
John9
John10
9 6 8 4 3 7 1 5 10 2 
10 2 1 6 4 5 9 3 8 7 
10 6 8 4 2 1 7 9 3 5 

2
John1
John2
2 1 

4
John1
John2
John3
John4
2 4 1 3 
3 4 2 1 
3 1 2 4 

7
John1
John2
John3
John4
John5
John6
John7
6 2 3 7 4 5 1 
1 6 7 5 4 2 3 
5 6 2 4 3 1 7 
1 6 4 2 7 5 3 
4 1 7 2 5 6 3 
3 4 6 2 1 7 5 
5 2 1 7 3 4 6 
3 7 4 5 2 1 6 
5 7 4 6 1 2 3 
5 1 7 2 6 3 4 

10
John1
John2
John3
John4
John5
John6
John7
John8
John9
John10
7 4 9 5 3 1 6 2 8 10 
8 9 3 2 7 1 5 6 10 4 
1 10 6 9 5 2 4 3 8 7 
7 8 4 9 3 5 10 2 6 1 
5 4 9 1 3 7 8 10 6 2 
5 1 8 4 7 3 9 10 2 6 
5 2 9 8 1 6 3 4 7 10 
8 4 7 6 10 1 5 2 9 3 

4
John1
John2
John3
John4
1 2 4 3 
2 4 3 1 
3 1 4 2 
2 1 4 3 

5
John1
John2
John3
John4
John5
2 1 4 3 5 
5 2 4 1 3 
5 3 1 4 2 
5 3 4 1 2 

8
John1
John2
John3
John4
John5
John6
John7
John8
4 5 7 8 3 2 6 1 
3 6 1 4 2 8 7 5 
5 4 6 1 8 3 2 7 
7 6 8 5 1 2 3 4 
4 7 3 6 8 5 1 2 
7 4 3 1 5 8 6 2 
5 8 3 4 2 1 7 6 
5 4 8 7 1 6 3 2 

4
John1
John2
John3
John4
2 3 4 1 
1 2 4 3 
3 1 4 2 
4 3 1 2 
1 3 4 2 
2 1 4 3 
1 4 2 3 
1 4 3 2 
4 1 2 3 

2
John1
John2
2 1 
2 1 
2 1 
2 1 

10
John1
John2
John3
John4
John5
John6
John7
John8
John9
John10
10 3 9 7 8 6 4 2 1 5 
5 9 10 3 2 8 7 1 6 4 

5
John1
John2
John3
John4
John5
5 1 4 3 2 
2 1 4 3 5 
1 3 4 5 2 

1
John1
1 
1 
1 
1 
1 

1
John1
1 
1 
1 
1 
1 
1 
1 
1 
1 
1 

2
John1
John2
2 1 
1 2 
1 2 
2 1 
1 2 
1 2 
1 2 
1 2 
2 1 
1 2 

6
John1
John2
John3
John4
John5
John6
4 6 3 5 2 1 

2
John1
John2
2 1 
2 1 
2 1 
1 2 
2 1 
2 1 
1 2 
2 1 

3
John1
John2
John3
2 3 1 
1 2 3 
2 3 1 
1 2 3 
3 1 2 
2 3 1 
2 3 1 

4
John1
John2
John3
John4
1 2 4 3 
2 4 3 1 
1 2 4 3 
4 3 2 1 
